C:\Users\octav\Desktop\demoapi\implementation\src\test\java\com\domain\DepartmentServiceImplTest.java
C:\Users\octav\Desktop\demoapi\implementation\src\test\java\com\controllers\CompanyControllerManagerImplTest.java
C:\Users\octav\Desktop\demoapi\implementation\src\test\java\com\controllers\DepartmentControllerMangerImplTest.java
C:\Users\octav\Desktop\demoapi\implementation\src\test\java\com\domain\CompanyServiceImplTest.java
