-------------------------------------------------------------------------------
Test set: com.controllers.CompanyControllerManagerImplTest
-------------------------------------------------------------------------------
Tests run: 9, Failures: 0, Errors: 0, Skipped: 0, Time elapsed: 17.255 s - in com.controllers.CompanyControllerManagerImplTest
