C:\Users\octav\Desktop\demoapi\implementation\src\main\java\com\dao\Ceo.java
C:\Users\octav\Desktop\demoapi\implementation\src\main\java\com\domain\mapper\ceo\mapperinterface\CeoMapper.java
C:\Users\octav\Desktop\demoapi\implementation\src\main\java\com\controllers\CeoControllerManagerImpl.java
C:\Users\octav\Desktop\demoapi\implementation\src\main\java\com\exceptions\ApiException.java
C:\Users\octav\Desktop\demoapi\implementation\src\main\java\com\service\CompanyService.java
C:\Users\octav\Desktop\demoapi\implementation\src\main\java\com\dao\DepartmentRepository.java
C:\Users\octav\Desktop\demoapi\implementation\src\main\java\com\controllers\CompanyControllerManagerImpl.java
C:\Users\octav\Desktop\demoapi\implementation\src\main\java\com\service\CeoService.java
C:\Users\octav\Desktop\demoapi\implementation\src\main\java\com\DemoApplication.java
C:\Users\octav\Desktop\demoapi\implementation\src\main\java\com\domain\DepartmentServiceImpl.java
C:\Users\octav\Desktop\demoapi\implementation\src\main\java\com\domain\mapper\company\mapperimpl\CompanyMapperImpl.java
C:\Users\octav\Desktop\demoapi\implementation\src\main\java\com\dao\CeoRepository.java
C:\Users\octav\Desktop\demoapi\implementation\src\main\java\com\domain\CeoServiceImpl.java
C:\Users\octav\Desktop\demoapi\implementation\src\main\java\com\exceptions\ResourceNotFoundException.java
C:\Users\octav\Desktop\demoapi\implementation\src\main\java\com\dao\CompanyRepository.java
C:\Users\octav\Desktop\demoapi\implementation\src\main\java\com\domain\mapper\company\mapperinterface\CompanyMapper.java
C:\Users\octav\Desktop\demoapi\implementation\src\main\java\com\dao\Company.java
C:\Users\octav\Desktop\demoapi\implementation\src\main\java\com\dao\Department.java
C:\Users\octav\Desktop\demoapi\implementation\src\main\java\com\controllers\DepartmentControllerMangerImpl.java
C:\Users\octav\Desktop\demoapi\implementation\src\main\java\com\service\DepartmentService.java
C:\Users\octav\Desktop\demoapi\implementation\src\main\java\com\domain\CompanyServiceImpl.java
C:\Users\octav\Desktop\demoapi\implementation\src\main\java\com\domain\mapper\department\mapperimpl\DepartmentMapperImpl.java
C:\Users\octav\Desktop\demoapi\implementation\src\main\java\com\domain\mapper\ceo\mapperimpl\CeoMapperImpl.java
C:\Users\octav\Desktop\demoapi\implementation\src\main\java\com\exceptions\ApiExceptionHandler.java
C:\Users\octav\Desktop\demoapi\implementation\src\main\java\com\domain\mapper\department\mapperinterface\DepartmentMapper.java
